*Heading
** Job name: Job-1 Model name: Model-1
** Generated by: Abaqus/CAE 2021
*Preprint, echo=NO, model=NO, history=NO, contact=NO
**
** PARTS
**
*Part, name=Part-1
*Node
      1,          50.,          50.,         100.
      2,          50.,         -50.,         100.
      3,          50.,          50.,           0.
      4,          50.,         -50.,           0.
      5,         -50.,          50.,         100.
      6,         -50.,         -50.,         100.
      7,         -50.,          50.,           0.
      8,         -50.,         -50.,           0.
*Element, type=C3D8
1, 5, 6, 8, 7, 1, 2, 4, 3
*Nset, nset=Set-1, generate
 1,  8,  1
*Elset, elset=Set-1
 1,
** Section: Section-1
*Solid Section, elset=Set-1, material=Material-1
,
*End Part
**  
**
** ASSEMBLY
**
*Assembly, name=Assembly
**  
*Instance, name=Part-1-1, part=Part-1
*End Instance
**  
*Nset, nset=Set-1, instance=Part-1-1
 6,
*Nset, nset=Set-2, instance=Part-1-1
 1, 2, 5
*Nset, nset=Set-3, instance=Part-1-1
 4, 8
*Nset, nset=Set-4, instance=Part-1-1
 5, 7, 8
*Nset, nset=Set-5, instance=Part-1-1, generate
 1,  4,  1
*Elset, elset=Set-5, instance=Part-1-1
 1,
*Nset, nset=Set-6, instance=Part-1-1, generate
 2,  8,  2
*Nset, nset=Set-7, instance=Part-1-1
 3, 4, 7, 8
*Nset, nset=Set-8, instance=Part-1-1
 4,
*Nset, nset=Set-9, instance=Part-1-1
 8,
*Nset, nset=Set-10, instance=Part-1-1
 6,
*Nset, nset=Set-11, instance=Part-1-1, generate
 5,  8,  1
*Nset, nset=Set-12, instance=Part-1-1, generate
 1,  4,  1
*Elset, elset=Set-12, instance=Part-1-1
 1,
*Nset, nset=Set-13, instance=Part-1-1, generate
 1,  4,  1
*Nset, nset=Set-14, instance=Part-1-1, generate
 1,  8,  1
*Elset, elset=Set-14, instance=Part-1-1
 1,
*End Assembly
*Amplitude, name=Amp-1
             0.,              0.,              5.,        0.501252,             15.,       -0.498752,             25.,        0.501252
            35.,       -0.498752,             45.,        0.501252,             55.,       -0.498752,             65.,        0.501252
            75.,       -0.498752,             85.,        0.501252,             95.,       -0.498752,            105.,        0.501252
           115.,       -0.498752,            125.,        0.501252,            135.,       -0.498752,            145.,        0.501252
           155.,       -0.498752,            165.,        0.501252,            175.,       -0.498752,            185.,        0.501252
           195.,       -0.498752,            205.,        0.501252,            215.,       -0.498752,            225.,        0.501252
           235.,       -0.498752,            245.,        0.501252,            255.,       -0.498752,            265.,        0.501252
           275.,       -0.498752,            285.,        0.501252,            295.,       -0.498752,            305.,        0.501252
           315.,       -0.498752,            325.,        0.501252,            335.,       -0.498752,            345.,        0.501252
           355.,       -0.498752,            365.,        0.501252,            375.,       -0.498752,            385.,        0.501252
           395.,       -0.498752,            405.,        0.501252,            415.,       -0.498752,            425.,        0.501252
           435.,       -0.498752,            445.,        0.501252,            455.,       -0.498752,            465.,        0.501252
           475.,       -0.498752,            485.,        0.501252,            495.,       -0.498752,            505.,        0.501252
           515.,       -0.498752,            525.,        0.501252,            535.,       -0.498752,            545.,        0.501252
           555.,       -0.498752,            565.,        0.501252,            575.,       -0.498752,            585.,        0.501252
           595.,       -0.498752,            605.,        0.501252,            615.,       -0.498752,            625.,        0.501252
           635.,       -0.498752,            645.,        0.501252,            655.,       -0.498752,            665.,        0.501252
           675.,       -0.498752,            685.,        0.501252,            695.,       -0.498752,            705.,        0.501252
           715.,       -0.498752,            725.,        0.501252,            735.,       -0.498752,            745.,        0.501252
           755.,       -0.498752,            765.,        0.501252,            775.,       -0.498752,            785.,        0.501252
           795.,       -0.498752,            805.,        0.501252,            815.,       -0.498752,            825.,        0.501252
           835.,       -0.498752,            845.,        0.501252,            855.,       -0.498752,            865.,        0.501252
           875.,       -0.498752,            885.,        0.501252,            895.,       -0.498752,            905.,        0.501252
           915.,       -0.498752,            925.,        0.501252,            935.,       -0.498752,            945.,        0.501252
           955.,       -0.498752,            965.,        0.501252,            975.,       -0.498752,            985.,        0.501252
           995.,       -0.498752,           1005.,        0.501252,           1015.,       -0.498752,           1025.,        0.501252
          1035.,       -0.498752,           1045.,        0.501252,           1055.,       -0.498752,           1065.,        0.501252
          1075.,       -0.498752,           1085.,        0.501252,           1095.,       -0.498752,           1105.,        0.501252
          1115.,       -0.498752,           1125.,        0.501252,           1135.,       -0.498752,           1145.,        0.501252
          1155.,       -0.498752,           1165.,        0.501252,           1175.,       -0.498752,           1185.,        0.501252
          1195.,       -0.498752,           1205.,        0.501252,           1215.,       -0.498752,           1225.,        0.501252
          1235.,       -0.498752,           1245.,        0.501252,           1255.,       -0.498752,           1265.,        0.501252
          1275.,       -0.498752,           1285.,        0.501252,           1295.,       -0.498752,           1305.,        0.501252
          1315.,       -0.498752,           1325.,        0.501252,           1335.,       -0.498752,           1345.,        0.501252
          1355.,       -0.498752,           1365.,        0.501252,           1375.,       -0.498752,           1385.,        0.501252
          1395.,       -0.498752,           1405.,        0.501252,           1415.,       -0.498752,           1425.,        0.501252
          1435.,       -0.498752,           1445.,        0.501252,           1455.,       -0.498752,           1465.,        0.501252
          1475.,       -0.498752,           1485.,        0.501252,           1495.,       -0.498752,           1505.,        0.501252
          1515.,       -0.498752,           1525.,        0.501252,           1535.,       -0.498752,           1545.,        0.501252
          1555.,       -0.498752,           1565.,        0.501252,           1575.,       -0.498752,           1585.,        0.501252
          1595.,       -0.498752,           1605.,        0.501252,           1615.,       -0.498752,           1625.,        0.501252
          1635.,       -0.498752,           1645.,        0.501252,           1655.,       -0.498752,           1665.,        0.501252
          1675.,       -0.498752,           1685.,        0.501252,           1695.,       -0.498752,           1705.,        0.501252
          1715.,       -0.498752,           1725.,        0.501252,           1735.,       -0.498752,           1745.,        0.501252
          1755.,       -0.498752,           1765.,        0.501252,           1775.,       -0.498752,           1785.,        0.501252
          1795.,       -0.498752,           1805.,        0.501252,           1815.,       -0.498752,           1825.,        0.501252
          1835.,       -0.498752,           1845.,        0.501252,           1855.,       -0.498752,           1865.,        0.501252
          1875.,       -0.498752,           1885.,        0.501252,           1895.,       -0.498752,           1905.,        0.501252
          1915.,       -0.498752,           1925.,        0.501252,           5525.,        0.501252,           5535.,       -0.498752
          5545.,        0.501252,           5725.,        0.501252,           5735.,       -0.498752,           5745.,        0.501252
          5925.,        0.501252,           5935.,       -0.498752,           5945.,        0.501252,           6125.,        0.501252
          6135.,       -0.498752,           6145.,        0.501252,           6325.,        0.501252,           6335.,       -0.498752
          6345.,        0.501252,           6525.,        0.501252,           6535.,       -0.498752,           6545.,        0.501252
          6725.,        0.501252,           6735.,       -0.498752,           6745.,        0.501252,           6925.,        0.501252
          6935.,       -0.498752,           6945.,        0.501252,           7125.,        0.501252,           7135.,       -0.498752
          7145.,        0.501252,           7325.,        0.501252,           7335.,       -0.498752,           7345.,        0.501252
          7525.,        0.501252,           7535.,       -0.498752,           7545.,        0.501252,           7725.,        0.501252
          7735.,       -0.498752,           7745.,        0.501252,           7925.,        0.501252,           7935.,       -0.498752
          7945.,        0.501252,           8125.,        0.501252,           8135.,       -0.498752,           8145.,        0.501252
          8325.,        0.501252,           8335.,       -0.498752,           8345.,        0.501252,           8525.,        0.501252
          8535.,       -0.498752,           8545.,        0.501252,           8725.,        0.501252,           8735.,       -0.498752
          8745.,        0.501252,           8925.,        0.501252,           8935.,       -0.498752,           8945.,        0.501252
          9125.,        0.501252,           9135.,       -0.498752,           9145.,        0.501252,           9325.,        0.501252
          9335.,       -0.498752,           9345.,        0.501252,           9525.,        0.501252,           9535.,       -0.498752
          9545.,        0.501252,           9725.,        0.501252,           9735.,       -0.498752,           9745.,        0.501252
          9925.,        0.501252,           9935.,       -0.498752,           9945.,        0.501252,          10125.,        0.501252
         10135.,       -0.498752,          10145.,        0.501252,          10325.,        0.501252,          10335.,       -0.498752
         10345.,        0.501252,          10525.,        0.501252,          10535.,       -0.498752,          10545.,        0.501252
         10725.,        0.501252,          10735.,       -0.498752,          10745.,        0.501252,          10925.,        0.501252
         10935.,       -0.498752,          10945.,        0.501252,          11125.,        0.501252,          11135.,       -0.498752
         11145.,        0.501252,          11325.,        0.501252,          11335.,       -0.498752,          11345.,        0.501252
         11525.,        0.501252,          11535.,       -0.498752,          11545.,        0.501252,          11725.,        0.501252
         11735.,       -0.498752,          11745.,        0.501252,          11925.,        0.501252,          11935.,       -0.498752
         11945.,        0.501252,          12125.,        0.501252,          12135.,       -0.498752,          12145.,        0.501252
         12325.,        0.501252,          12335.,       -0.498752,          12345.,        0.501252,          12525.,        0.501252
         12535.,       -0.498752,          12545.,        0.501252,          12725.,        0.501252,          12735.,       -0.498752
         12745.,        0.501252,          12925.,        0.501252,          12935.,       -0.498752,          12945.,        0.501252
         13125.,        0.501252,          13135.,       -0.498752,          13145.,        0.501252,          13325.,        0.501252
         13335.,       -0.498752,          13345.,        0.501252,          13525.,        0.501252,          13535.,       -0.498752
         13545.,        0.501252,          13725.,        0.501252,          13735.,       -0.498752,          13745.,        0.501252
         13925.,        0.501252,          13935.,       -0.498752,          13945.,        0.501252,          14125.,        0.501252
         14135.,       -0.498752,          14145.,        0.501252,          14325.,        0.501252,          14335.,       -0.498752
         14345.,        0.501252,          14525.,        0.501252,          14535.,       -0.498752,          14545.,        0.501252
         14725.,        0.501252,          14735.,       -0.498752,          14745.,        0.501252,          14925.,        0.501252
         14935.,       -0.498752,          14945.,        0.501252,          15125.,        0.501252,          15135.,       -0.498752
         15145.,        0.501252,          15325.,        0.501252,          15335.,       -0.498752,          15345.,        0.501252
         15525.,        0.501252,          15535.,       -0.498752,          15545.,        0.501252,          15725.,        0.501252
         15735.,       -0.498752,          15745.,        0.501252,          15925.,        0.501252,          15935.,       -0.498752
         15945.,        0.501252,          16125.,        0.501252,          16135.,       -0.498752,          16145.,        0.501252
         16325.,        0.501252,          16335.,       -0.498752,          16345.,        0.501252,          16525.,        0.501252
         16535.,       -0.498752,          16545.,        0.501252,          16725.,        0.501252,          16735.,       -0.498752
         16745.,        0.501252,          16925.,        0.501252,          16935.,       -0.498752,          16945.,        0.501252
         17125.,        0.501252,          17135.,       -0.498752,          17145.,        0.501252,          17325.,        0.501252
         17335.,       -0.498752,          17345.,        0.501252,          17525.,        0.501252,          17535.,       -0.498752
         17545.,        0.501252,          17725.,        0.501252,          17735.,       -0.498752,          17745.,        0.501252
         17925.,        0.501252,          17935.,       -0.498752,          17945.,        0.501252,          18125.,        0.501252
         18135.,       -0.498752,          18145.,        0.501252,          18325.,        0.501252,          18335.,       -0.498752
         18345.,        0.501252,          18525.,        0.501252,          18535.,       -0.498752,          18545.,        0.501252
         18725.,        0.501252,          18735.,       -0.498752,          18745.,        0.501252,          18925.,        0.501252
         18935.,       -0.498752,          18945.,        0.501252,          19125.,        0.501252,          19135.,       -0.498752
         19145.,        0.501252,          19325.,        0.501252,          19335.,       -0.498752,          19345.,        0.501252
         19525.,        0.501252,          19535.,       -0.498752,          19545.,        0.501252,          19555.,       -0.498752
         19565.,        0.501252,          19575.,       -0.498752,          19585.,        0.501252,          19595.,       -0.498752
         19605.,        0.501252,          19615.,       -0.498752,          19625.,        0.501252,          19635.,       -0.498752
         19645.,        0.501252,          19655.,       -0.498752,          19665.,        0.501252,          19675.,       -0.498752
         19685.,        0.501252,          19695.,       -0.498752,          19705.,        0.501252,          19715.,       -0.498752
         19725.,        0.501252,          19735.,       -0.498752,          19745.,        0.501252,          19755.,       -0.498752
         19765.,        0.501252,          19775.,       -0.498752,          19785.,        0.501252,          19795.,       -0.498752
         19805.,        0.501252,          19815.,       -0.498752,          19825.,        0.501252,          19835.,       -0.498752
         19845.,        0.501252,          19855.,       -0.498752,          19865.,        0.501252,          19875.,       -0.498752
         19885.,        0.501252,          19895.,       -0.498752,          19905.,        0.501252,          19915.,       -0.498752
         19925.,        0.501252,          19935.,       -0.498752,          19945.,        0.501252,          19955.,       -0.498752
         19965.,        0.501252,          19975.,       -0.498752,          19985.,        0.501252,          19995.,       -0.498752
         20005.,        0.501252,          20015.,       -0.498752,          20025.,        0.501252,          20035.,       -0.498752
         20045.,        0.501252,          20055.,       -0.498752,          20065.,        0.501252,          20075.,       -0.498752
         20085.,        0.501252,          20095.,       -0.498752,          20105.,        0.501252,          20115.,       -0.498752
         20125.,        0.501252,          20135.,       -0.498752,          20145.,        0.501252,          20155.,       -0.498752
         20165.,        0.501252,          20175.,       -0.498752,          20185.,        0.501252,          20195.,       -0.498752
         20205.,        0.501252,          20215.,       -0.498752,          20225.,        0.501252,          20235.,       -0.498752
         20245.,        0.501252,          20255.,       -0.498752,          20265.,        0.501252,          20275.,       -0.498752
         20285.,        0.501252,          20295.,       -0.498752,          20305.,        0.501252,          20315.,       -0.498752
         20325.,        0.501252,          20335.,       -0.498752,          20345.,        0.501252,          20355.,       -0.498752
         20365.,        0.501252,          20375.,       -0.498752,          20385.,        0.501252,          20395.,       -0.498752
         20405.,        0.501252,          20415.,       -0.498752,          20425.,        0.501252,          20435.,       -0.498752
         20445.,        0.501252,          20455.,       -0.498752,          20465.,        0.501252,          20475.,       -0.498752
         20485.,        0.501252,          20495.,       -0.498752,          20505.,        0.501252,          20515.,       -0.498752
         20525.,        0.501252,          20535.,       -0.498752,          20545.,        0.501252,          20555.,       -0.498752
         20565.,        0.501252,          20575.,       -0.498752,          20585.,        0.501252,          20595.,       -0.498752
         20605.,        0.501252,          20615.,       -0.498752,          20625.,        0.501252,          20635.,       -0.498752
         20645.,        0.501252,          20655.,       -0.498752,          20665.,        0.501252,          20675.,       -0.498752
         20685.,        0.501252,          20695.,       -0.498752,          20705.,        0.501252,          20715.,       -0.498752
         20725.,        0.501252,          20735.,       -0.498752,          20745.,        0.501252,          20755.,       -0.498752
         20765.,        0.501252,          20775.,       -0.498752,          20785.,        0.501252,          20795.,       -0.498752
         20805.,        0.501252,          20815.,       -0.498752,          20825.,        0.501252,          20835.,       -0.498752
         20845.,        0.501252,          20855.,       -0.498752,          20865.,        0.501252,          20875.,       -0.498752
         20885.,        0.501252,          20895.,       -0.498752,          20905.,        0.501252,          20915.,       -0.498752
         20925.,        0.501252,          20935.,       -0.498752,          20945.,        0.501252,          20955.,       -0.498752
         20965.,        0.501252,          20975.,       -0.498752,          20985.,        0.501252,          20995.,       -0.498752
         21005.,        0.501252,          21015.,       -0.498752,          21025.,        0.501252,          21035.,       -0.498752
         21045.,        0.501252,          21055.,       -0.498752,          21065.,        0.501252,          21075.,       -0.498752
         21085.,        0.501252,          21095.,       -0.498752,          21105.,        0.501252,          21115.,       -0.498752
         21125.,        0.501252,          21135.,       -0.498752,          21145.,        0.501252,          21155.,       -0.498752
         21165.,        0.501252,          21175.,       -0.498752,          21185.,        0.501252,          21195.,       -0.498752
         21205.,        0.501252,          21215.,       -0.498752,          21225.,        0.501252,          21235.,       -0.498752
         21245.,        0.501252,          21255.,       -0.498752,          21265.,        0.501252,          21275.,       -0.498752
         21285.,        0.501252,          21295.,       -0.498752,          21305.,        0.501252,          21315.,       -0.498752
         21325.,        0.501252,          21335.,       -0.498752,          21345.,        0.501252,          21355.,       -0.498752
         21365.,        0.501252,          21375.,       -0.498752,          21385.,        0.501252,          21395.,       -0.498752
         21405.,        0.501252,          21415.,       -0.498752,          21425.,        0.501252,          21435.,       -0.498752
         21445.,        0.501252,          21455.,       -0.498752,          21465.,        0.501252,          21475.,       -0.498752
         21485.,        0.501252,          21495.,       -0.498752,          21505.,        0.501252,          21515.,       -0.498752
         21525.,        0.501252
** 
** MATERIALS
** 
*Material, name=Material-1
*Depvar
     30,
*User Material, constants=24
135000.,       0.3,      82.5,       50.,       10.,     101.2,       5.3,    57176.
    11480.,      900.,     1453.,      280.,        9.,     -773.,      -95.,       10.
       11., 1.778e-06,     0.035,      0.04,      0.41,      2.26,  3.27e-06,     1.694
** 
** BOUNDARY CONDITIONS
** 
** Name: BC-1 Type: Displacement/Rotation
*Boundary
Set-6, 2, 2
** Name: BC-2 Type: Displacement/Rotation
*Boundary
Set-7, 3, 3
** Name: BC-3 Type: Displacement/Rotation
*Boundary
Set-11, 1, 1
** 
** PREDEFINED FIELDS
** 
** Name: Predefined Field-1   Type: Temperature
*Initial Conditions, type=TEMPERATURE
Set-14, 950.
** ----------------------------------------------------------------
** 
** STEP: Step-1
** 
*Step, name=Step-1, nlgeom=YES, inc=10000000
*Static
0.1, 21525., 1e-05, 0.5
** 
** BOUNDARY CONDITIONS
** 
** Name: Z-Dis Type: Displacement/Rotation
*Boundary, amplitude=Amp-1
Set-13, 1, 1, 1.
** 
** OUTPUT REQUESTS
** 
*Restart, write, frequency=0
** 
** FIELD OUTPUT: F-Output-1
** 
*Output, field, time interval=0.5
*Node Output
U, 
*Element Output, directions=YES
LE, S, SDV
** 
** HISTORY OUTPUT: H-Output-1
** 
*Output, history, variable=PRESELECT
*End Step
